21

1

124

124
-1

1
10
1
-2
-1

1
10
1
10
-2
-2

1
10
1
10
-4
-2
-2

40
20
10
3
4
-1
-1
-1
-1
-1

1
1
1
1
1
1
1
1
1
1
1
1
1
1
1
1
1
1
1
1
-1
-1
-1
-1
-1
-1
-1
-1
-1
-1
-1
-1
-1
-1
-1
-1
-1
-1
-1
-1

124
-1
124
-1
1

123

122

54
10
-2
12
-1

40
-1
50
-1
60
-1
120
-1
5
6
-1
-1
2
-1
100
-1

1
2
3
4
5
6
7
8
9
10
11
12
13
-6
-5
-4
-3
-3
-2
-1
9

10
9
8
7
6
5
4
3
2
1

50
-1
10
9
-2
-1
120

90
1
-2
3
-1
6
-1
12
-1
2
3
4

5
5
5
5
5
-2
-3
-2

78
2
3
1
1
-1
-4

122
1

124
-1
123
-1
122
-1
120
-1
1
2
3
4
5
6
7
8
9
-5
-7
-1
