-80 904
-40 -40 896
80 -160 736
-120 -200 656
-80 -160 -240 488
96 -144 -176 552
-320 664
80 -80 -80 728
240 -160 -320 248
-40 -56 -72 800
-320 664
160 -240 576
-120 -120 -120 608
80 -160 -240 488
40 -80 -120 728
-200 -280 496
-80 -80 -80 -80 640
992
-40 -40 -40 848
64 -128 -192 584
-160 -160 -160 488
-80 -160 -240 488
-40 -40 -40 848
-120 -120 -120 -120 480
320 -240 416
