23

9
-1
6
2
5
6
6
-4
8
5
5
3

5
9

5

4
-1
2
3
9
9
8
-3
-3
-1
8
2

9
7
9
3
8
2

1
6
1
8
6
9
-4
7
7
2
-1
8
1
8
1
-3
9
8

5
4
4
9
5
5
9
-4
-2
3
5
4
1
-1
4
8
-4

5
-1
6
8
-2
9
5
-3
-1
-1

6
6
3
-1
-2
4
-2
9
7
-1
6
4
3

3
-1
5
1
8
3

6
-1
2
3
9
-1
9
1
3
7
9
4
-2
3
6

1

4
3
4
1

2
-1
5
1
4
-2
-2
1
7
-2
-2
3
8
6
2
8
9
7
3

2
-1
3
6
4

9
9
-2

4
-1
4
8
9
6
-1
3
1
-5
2
9
9
3
4
7
3

6
-1
8
-1
2
-1
4
4

7
-1
5
3
6
-3
3
2
6
5

5
2
-1
-1
9
-1
2
9
2
7
1
7
4

6
-1
9
-1
1
-1
3
-1
6
4
-1

9
9

2
-1
5
-1
8
4
-2
-1
9
8
2
4
