-40 944
-80 904
-24 960
-40 -24 912
40 -24 912
72 -24 880
-16 16 -24 -56 848
992
-40 -24 -16 888
-8 976
8 -40 -8 912
72 -16 888
992
992
-40 944
-80 904
40 -24 912
-40 -24 -40 864
40 -24 -16 888
72 -40 -24 832
