592 -152 232
-448 488 -16 16
24 -336 -536 72
-904 -56 16
480 -64 432
-168 -24 784
-56 464 -8 32 -96 -72 216
-928 56
-16 -272 -56 48 -16 136 -56 336
-32 -72 -64 -8 488 -120 160
-32 24 -80 488 -8 320
-600 48 -64 8 -8 -8 208
40 -664 -256 8
640 -24 312
-80 40 -8 -72 -16 736
-48 -56 -8 -264 584
-640 -72 -8 -8 -16 -24 -8 -8 144
-48 -8 24 -8 -16 -16 -16 -16 776
-872 -16 -8 -8 -8 -8 24
-616 -216 -120 16
-520 -88 144 -8 -80 112
-160 80 -168 -8 40 -40 -48 392
-80 -8 -24 856
-360 472 -48 88
24 -400 552
-64 -24 -32 -72 -32 320 -16 376
