-80 -8 -24 32 -8 -16 -32 -8 -72 640
-120 -40 -32 -80 88 -32 32 -56 448
-8 -56 -40 -72 -56 -32 -8 -72 -16 560
-72 -56 -24 -56 8 -80 -40 600
-64 -80 -64 -16 -72 -64 -72 -8 -56 424
-56 -8 -56 -64 776
-120 -40 -64 -48 -48 -64 -16 -48 -24 -16 -80 -48 280
48 -80 -80 -32 720
-56 -72 -32 -80 -72 -48 -80 -8 480
-80 -56 -40 -24 16 -48 -64 608
48 -72 -64 -56 720
-120 -56 -48 -48 -80 -56 -16 64 -8 -56 -56 -40 -72 168
64 -24 -24 64 -16 760
-120 -24 -48 56 -24 -72 -48 -72 -72 -64 312
-40 8 -80 -24 -32 768
-72 -48 -32 -40 -80 -40 -64 560
-64 -16 40 -64 -24 -72 -56 600
-88 -64 -48 -40 -8 -56 -48 -24 552
-40 -56 -8 -80 776
-64 -32 -72 -16 -16 -72 672
-96 88 -48 -64 -48 -80 -64 448
-104 -24 -16 -32 -64 -16 -40 -32 -64 -56 -24 432
-48 -24 8 -16 -24 80 -16 -16 48 -40 592
