21

100
-1

95

1
1
1
1
1
15
10
-10

45
35
7
-1
-1
2
-1

55
30
20
-2
-2
-2
-2
-2
-2
-2
-2
-2
-2

10
20
30
-3
35
40
-2
-1

6
6
6
6
6
6
6
6
6
6
-6
-6
-6
-6
-6

30
4
5
-3
-1
-2

100
-1

90
-1
80
-1
5
10
-1
3
10
-1

60
-1
-1
-3
-1
-2

20
20
20
20
20
-8
-8
-8
-8
-3

2
4
6
8
10
12
18
-10
-10
-5
-5

15
15
15
-5
-5
-5

3
-1
5
-1
10
-1
15
-1

50
-1

2
4
6
8
18
20
-1
-1
-1
-1
-1
-1
-1
-1

16
19
5
-3
-2
-1

100
-1
90
-1
85
-1
80
-1

5
4
3
6
5
7
8
-4
-2

5
4
9
27
-9
-4
15
