24

6
-1
4
4
-6
11
2

11
-11
-7
6
-6
-9
10
7
2
3
-3
1

11
3
7
10
2
7
-2
3
2
4
-2
-6

6
2
-1
8
2
10
1

10
11
-10
9
5
9
-5
5
10
-2
4

7
10
1
-4
9
10
10
-6

13
7
2
3
2
3
3
-11
-3
-9
12
2
2
-9

3
8
2
6
-4
-2
-2
-5

12
8
-8
-10
10
6
2
-2
3
6

5
-3
1
6
-2
3

9
6
7
2
-2
10
1
5
8
4

9
2
2
-7
7
-9
5
9
10
-9

13
3
2
7
7
1
-7
-11
10
7
2
10
5
10

8
8
3
6
3
-7
6
5
2

10
2
-9
10
7
9
6
-4
7
-8
10

15
-9
9
7
-13
4
5
-1
-11
8
-6
10
9
2
5
-11

13
5
6
8
3
-1
5
-7
2
5
8
-10
1
-9

10
3
3
-1
-1
8
-8
-8
4
4
-3

14
-6
-6
6
8
7
6
-7
3
2
-10
7
-1
10
7

7
-4
8
8
-7
4
10
9

7
10
2
7
6
-1
-5
5

7
3
-3
-2
-3
7
7
-1

14
-10
6
-12
2
-12
4
2
2
-5
2
5
2
8
3

6
1
1
-4
-4
3
10
